{
  "project_info": {
    "project_number": "393182661203",
    "firebase_url": "https://si-imut-21b03.firebaseio.com",
    "project_id": "si-imut-21b03",
    "storage_bucket": "si-imut-21b03.appspot.com"
  },
  "client": [
    {
      "client_info": {
        "mobilesdk_app_id": "1:393182661203:android:e4a23d7fd3fb7d2c",
        "android_client_info": {
          "package_name": "com.nmk.siimut"
        }
      },
      "oauth_client": [
        {
          "client_id": "393182661203-cqljgbkhkhd180eb98q58a33q9ifjhvq.apps.googleusercontent.com",
          "client_type": 3
        }
      ],
      "api_key": [
        {
          "current_key": "AIzaSyAmwvHZh2yaqxN1akC9PdSlC23qFWv5F44"
        }
      ],
      "services": {
        "appinvite_service": {
          "other_platform_oauth_client": [
            {
              "client_id": "393182661203-cqljgbkhkhd180eb98q58a33q9ifjhvq.apps.googleusercontent.com",
              "client_type": 3
            }
          ]
        }
      }
    }
  ],
  "configuration_version": "1"
}